{
  "header": {
    "name": "add_link",
    "path": "/bracelet/add_link.json",
    "title": "Bracelet Add Link call",
    "description": "Adds a link to the current chain editor."
  },
  "links": [
    {
      "id" : 1001,
      "link": "bracelet.bracelet_call",
      "title": "Add a link",
      "exec": true,
      "command": "addLinkToChain"
    }
  ]
}