{
  "header": {
    "name": "list_link",
    "path": "/bracelet/list_link.json",
    "title": "Bracelet link list of elements",
    "description": "Saves the updated link."
  },
  "links": [
    {
      "id" : 1001,
      "link": "bracelet.bracelet_call",
      "title": "List Link",
      "exec": true,
      "command": "listLinkCall"
    }
  ]
}