{
    "header": {
        "name": "object",
        "title": "Object Tree",
        "path": "/anklet/object",
        "testQuery": "productId=50426250",
        "testPost": "",
        "description": [
            "<p>Building an object tree from Lowe's API.",
            "<p>this is similar to the bracelet object tree chain"
        ],
        "method": "GET"
    },
    "links": [
        {
            "id": "1001",
            "title": "Get the product info",
            "link": "net.get_api",
            "hostname": "m.lowes.com",
            "path": "/CatalogServices/product/productid/{{queryData.productId}}/v2_0",
            "port": "",
            "method": "GET",
            "headers": "",
            "target": "body",
            "dataValues": [
                "storeNumber=0595",
                "showRomanceCopy=1",
                "showMarketingBullets=true",
                "showSpecs=1",
                "priceFlag=enhancedStatus"
            ],
            "protocol": "HTTPS",
            "exec": "true"
        },
        {
            "exec": "wait",
            "id": "1003",
            "title": "Start the page",
            "link": "web.html_block",
            "top": "0",
            "left": "0",
            "context": "workspace",
            "content": [
                "<html>",
                "<head>",
                "    <title>Object Tree Browser</title>",
                "    <script src=\"/anklet/bracelet/assets/lib/jquery.js\"></script>",
                "    <script src=\"/anklet/bracelet/assets/lib/jquery-ui.js\"></script>",
                "    <link rel=\"stylesheet\" type=\"text/css\" href=\"/anklet/bracelet/assets/css/scaffold-large.css\">",
                "    <link rel=\"stylesheet\" href=\"/anklet/bracelet/assets/css/jquery-ui.css\">",
                "    <link href=\"/anklet/bracelet/assets/css/bracelet.css\" rel=\"stylesheet\" type=\"text/css\" />",
                "",
                "</head>",
                "<body class=\"\">",
                "",
                "<div class=\"col-grid after-10\">",
                "    <div class=\"position-centered chain-info\">",
                "        <div class=\"graybox\">",
                "            <div id=\"chain_info\">Object tree for api call {{apiPath}}</div>",
                "        </div>",
                "    </div>",
                "</div>",
                ""
            ],
            "script": ""
        },
        {
            "id": "1002",
            "title": "show the object tree",
            "link": "bracelet.object_tree",
            "context": "body",
            "exec": "true"
        },
        {
            "exec": "true",
            "id": "1004",
            "title": "Script block",
            "link": "web.html_block",
            "top": "0",
            "left": "0",
            "context": "",
            "content": [],
            "script": [
                "(function($) {",
                "",
                "    // set the panel components",
                "    $('.clipLink').on('click', function(event) {",
                "        event.preventDefault();",
                "        const $thisItem = $(event.target),",
                "             thisValue = $thisItem.data('path');",
                "        let $thisInput = $('<input>');",
                "        $(\"body\").append($thisInput);",
                "        $thisInput.val(thisValue).select();",
                "        document.execCommand(\"copy\");",
                "        $thisInput.remove();",
                "",
                "        alert('The path \"'   thisValue   '\" has been copied to the clipboard.');",
                "    });",
                "",
                "})(jQuery)",
                ""
            ]
        },
        {
            "exec": "true",
            "id": "1005",
            "title": "End page",
            "link": "web.html_block",
            "top": "0",
            "left": "0",
            "context": "",
            "content": [
                "<script src=\"https://code.jquery.com/jquery.js\"></script>",
                "</body>",
                "</html>"
            ]
        }
    ]
}